{
	"Routes": [
		{
			"DownstreamPathTemplate": "/hometimeline/{userId}",
			"DownstreamScheme": "http",
			"DownstreamHostAndPorts": [
				{
					"Host": "kwetter-home-timeline-service",
					"Port": 6002
				}
			],
			"UpstreamPathTemplate": "/hometimeline/{userId}",
			"UpstreamHttpMethod": [ "Get" ]
		}
	]
}