{
  "Routes": [
    {
      "DownstreamPathTemplate": "/reply/{replyId}",
      "DownstreamScheme": "http",
      "DownstreamHostAndPorts": [
        {
          "Host": "localhost",
          "Port": 5002
        }
      ],
      "UpstreamPathTemplate": "/reply/{replyId}",
      "UpstreamHttpMethod": [ "Get", "Put", "Delete" ]
    },
    {
      "DownstreamPathTemplate": "/reply",
      "DownstreamScheme": "http",
      "DownstreamHostAndPorts": [
        {
          "Host": "localhost",
          "Port": 5002
        }
      ],
      "UpstreamPathTemplate": "/reply",
      "UpstreamHttpMethod": [ "Get", "Post" ]
    }
  ]
}
